{
	"disco" : "false",
	"nexts" : [
		"1", "5", "6", "7"
	],
	"messg" : [
		"You walk into the next section of hallway. There are two solid black doors, one to your right and one to your left, numbered 003 and 004, and ahead of you, beyond them, the hallway turns 90 degrees to the left. In this area, the floor has a different color pattern: gold and brown, and it feels like it shifts slightly under your feet, despite being solid and unmoving on further inspection. The air also feels dry around you, and warmer than it did before.\nBehind you, the hallway is a dead end.",
		"You walk into the next section of hallway. As before, you have two doors, one to your right and one to your left, numbered 003 and 004.\nThe floor here is still a gold and brown, grainy pattern. The floor feels like it shifts slightly under your feet, despite being solid and unmoving on further inspection.\nThe air also feels dry around you, and warmer than it did before.\nBehind you, the hallway is a dead end."
	],
	"prmpt" : [
		" What will you do?\n [1] Observe the wall behind you\n [2] Go to room 003\n [3] Go to room 004\n [4] Go to the next area"
	],
	"debug" : "#Hall 34"
}
